7K test  Test: 1: Took, 1.502382, 2015-09-24 13:14:00 +0900, 2015-09-24 13:13:58 +0900 
7K test  Test: 2: Took, 1.024104, 2015-09-24 13:14:01 +0900, 2015-09-24 13:14:00 +0900 
7K test  Test: 3: Took, 1.494614, 2015-09-24 13:14:04 +0900, 2015-09-24 13:14:02 +0900 
7K test  Test: 4: Took, 0.952601, 2015-09-24 13:14:05 +0900, 2015-09-24 13:14:04 +0900 
7K test  Test: 5: Took, 1.002268, 2015-09-24 13:14:07 +0900, 2015-09-24 13:14:06 +0900 
7K test  Test: 6: Took, 0.949928, 2015-09-24 13:14:09 +0900, 2015-09-24 13:14:08 +0900 
7K test  Test: 7: Took, 0.98367, 2015-09-24 13:14:10 +0900, 2015-09-24 13:14:09 +0900 
7K test  Test: 8: Took, 1.007884, 2015-09-24 13:14:12 +0900, 2015-09-24 13:14:11 +0900 
7K test  Test: 9: Took, 1.225372, 2015-09-24 13:14:14 +0900, 2015-09-24 13:14:13 +0900 
7K test  Test: 10: Took, 1.229742, 2015-09-24 13:14:16 +0900, 2015-09-24 13:14:15 +0900 
